<svg id="unknown"
version="1.1"
viewBox="0 0 20 20"
xmlns="http://www.w3.org/2000/svg" >
	<rect id="icon" transform="matrix(0.70710678,0.70710678,-0.70710678,0.70710678,0,0)" height="14.1" width="14.1" y="-7.07" x="7.07" fill="#F00"/>
</svg>
